truck2	ON	2018-10-12 12:14:55.208099+00:00
truck2	OFF	2018-10-12 12:14:55.576508+00:00
truck2	ON	2018-10-15 12:19:39.369368+00:00
truck2	OFF	2018-10-15 12:19:40.324203+00:00
truck2	ON	2018-10-15 12:19:41.963027+00:00
truck2	OFF	2018-10-15 12:19:42.579528+00:00
truck2	ON	2018-10-15 12:20:20.203653+00:00
truck2	OFF	2018-10-15 12:20:20.448358+00:00
truck2	ON	2018-10-15 12:20:23.373653+00:00
truck2	OFF	2018-10-15 12:20:23.944036+00:00
truck2	ON	2018-10-15 15:45:11.780362+00:00
truck2	OFF	2018-10-15 15:45:12.160020+00:00
truck2	ON	2018-10-15 15:45:14.856560+00:00
truck2	OFF	2018-10-15 15:45:15.074260+00:00
truck2	ON	2018-10-15 15:45:38.608612+00:00
truck2	OFF	2018-10-15 15:45:39.870381+00:00
truck2	ON	2018-10-15 15:45:42.322075+00:00
truck2	OFF	2018-10-15 15:45:42.685818+00:00
truck2	ON	2018-10-15 15:46:43.071062+00:00
truck2	OFF	2018-10-15 15:46:43.430493+00:00
truck2	ON	2018-10-15 15:46:45.337169+00:00
truck2	OFF	2018-10-15 15:46:45.578678+00:00
truck2	ON	2018-10-15 15:51:06.227352+00:00
truck2	OFF	2018-10-15 15:51:06.700159+00:00
truck2	ON	2018-10-15 15:51:09.458191+00:00
truck2	OFF	2018-10-15 15:51:09.783695+00:00
truck2	OFF	2018-10-15 15:51:09.783695+00:00
truck2	ON	2018-10-15 15:51:13.725778+00:00
truck2	OFF	2018-10-15 15:51:13.936427+00:00
truck2	ON	2018-10-15 15:51:18.943693+00:00
truck2	OFF	2018-10-15 15:51:19.219390+00:00
truck2	ON	2018-10-15 15:51:19.968717+00:00
truck2	OFF	2018-10-15 15:51:20.214406+00:00
truck2	OFF	2018-10-15 15:51:20.214406+00:00
truck2	ON	2018-10-15 15:51:26.168615+00:00
truck2	OFF	2018-10-15 15:51:27.006855+00:00
truck2	OFF	2018-10-15 15:51:27.006855+00:00
truck2	ON	2018-10-15 15:51:30.955255+00:00
truck2	OFF	2018-10-15 15:51:31.220316+00:00
truck2	OFF	2018-10-15 15:51:31.220316+00:00
truck2	OFF	2018-10-15 15:51:31.220316+00:00
truck2	OFF	2018-10-15 15:51:31.220316+00:00
truck2	ON	2018-10-15 15:51:37.067616+00:00
truck2	OFF	2018-10-15 15:51:37.678286+00:00
truck2	OFF	2018-10-15 15:51:37.678286+00:00
truck2	OFF	2018-10-15 15:51:37.678286+00:00
truck2	ON	2018-10-15 15:51:41.695293+00:00
truck2	OFF	2018-10-15 15:51:43.897076+00:00
truck2	OFF	2018-10-15 15:51:43.897076+00:00
truck2	ON	2018-10-15 15:51:52.122154+00:00
truck2	OFF	2018-10-15 15:51:52.393194+00:00
truck2	ON	2018-10-15 15:52:07.096316+00:00
truck2	OFF	2018-10-15 15:52:07.375483+00:00
truck2	ON	2018-10-15 15:52:10.994693+00:00
truck2	OFF	2018-10-15 15:52:11.414236+00:00
truck2	ON	2018-10-15 15:52:37.354104+00:00
truck2	OFF	2018-10-15 15:52:40.625095+00:00
truck2	ON	2018-10-15 15:52:44.100576+00:00
truck2	OFF	2018-10-15 15:52:44.426779+00:00
truck2	ON	2018-10-15 15:53:13.377054+00:00
truck2	OFF	2018-10-15 15:53:20.862035+00:00
truck2	ON	2018-10-15 15:53:24.818979+00:00
truck2	OFF	2018-10-15 15:53:25.190905+00:00
truck2	ON	2018-10-15 15:52:59.423277+00:00
truck2	OFF	2018-10-15 15:53:31.273440+00:00
