truck1	ON	2018-10-26 10:58:22+00:00	0:00:00
truck1	OFF	2018-10-26 10:58:27+00:00	0:00:05
truck1	ON	2018-10-26 10:58:31+00:00	0:00:05
truck1	OFF	2018-10-26 10:58:32+00:00	0:00:06
truck1	ON	2018-10-26 10:58:32+00:00	0:00:06
truck1	OFF	2018-10-26 10:58:34+00:00	0:00:08
truck1	ON	2018-10-26 10:58:34+00:00	0:00:08
truck1	OFF	2018-10-26 12:10:48+00:00	1:12:22
truck1	ON	2018-10-26 12:10:48+00:00	1:12:22
truck1	OFF	2018-10-26 12:10:49+00:00	1:12:23
truck1	ON	2018-10-26 12:10:49+00:00	1:12:23
truck1	OFF	2018-10-26 12:11:02+00:00	1:12:36
truck1	ON	2018-10-26 12:11:03+00:00	1:12:36
truck1	OFF	2018-10-26 12:11:04+00:00	1:12:37
truck1	ON	2018-10-26 12:11:04+00:00	1:12:37
