truck2	ON	2018-10-12 10:34:18.369087+00:00	2018-10-12 10:34:18.181964+00:00
truck2	OFF	2018-10-12 10:34:18.369087+00:00	2018-10-12 11:54:38.621819+00:00
truck2	ON	2018-10-12 11:54:38.982985+00:00	2018-10-12 11:54:38.621819+00:00
truck2	OFF	2018-10-12 11:54:38.982985+00:00	2018-10-12 11:54:43.301914+00:00
truck2	ON	2018-10-12 11:54:43.823627+00:00	2018-10-12 11:54:43.301914+00:00
truck2	OFF	2018-10-12 11:54:43.823627+00:00	2018-10-12 11:54:55.749405+00:00
truck2	ON	2018-10-12 11:54:56.295305+00:00	2018-10-12 11:54:55.749405+00:00
truck2	OFF	2018-10-12 11:54:56.295305+00:00	2018-10-12 11:55:00.209592+00:00
truck2	ON	2018-10-12 11:55:00.459290+00:00	2018-10-12 11:55:00.209592+00:00
truck2	OFF	2018-10-12 11:55:00.459290+00:00	2018-10-12 11:55:19.993695+00:00
truck2	ON	2018-10-12 11:55:22.149991+00:00	2018-10-12 11:55:19.993695+00:00
truck2	OFF	2018-10-12 11:55:22.149991+00:00	2018-10-12 11:55:34.422312+00:00
truck2	ON	2018-10-12 11:55:35.326887+00:00	2018-10-12 11:55:34.422312+00:00
truck2	OFF	2018-10-12 11:55:35.326887+00:00	2018-10-12 11:56:04.045580+00:00
truck2	ON	2018-10-12 11:56:05.095917+00:00	2018-10-12 11:56:04.045580+00:00
truck2	OFF	2018-10-12 11:56:05.095917+00:00	2018-10-12 11:56:08.150968+00:00
truck2	ON	2018-10-12 11:56:08.338849+00:00	2018-10-12 11:56:08.150968+00:00
truck2	OFF	2018-10-12 11:56:08.338849+00:00	2018-10-12 11:58:50.148449+00:00
truck2	ON	2018-10-12 11:58:51.184462+00:00	2018-10-12 11:58:50.148449+00:00
truck2	OFF	2018-10-12 11:58:51.184462+00:00	2018-10-12 11:58:54.546352+00:00
truck2	ON	2018-10-12 11:58:56.551940+00:00	2018-10-12 11:58:54.546352+00:00
truck2	OFF	2018-10-12 11:58:56.551940+00:00	2018-10-12 12:01:06.356790+00:00
truck2	ON	2018-10-12 12:01:07.688097+00:00	2018-10-12 12:01:06.356790+00:00
truck2	OFF	2018-10-12 12:01:07.688097+00:00	2018-10-12 12:01:12.982167+00:00
truck2	ON	2018-10-12 12:01:13.281387+00:00	2018-10-12 12:01:12.982167+00:00
truck2	OFF	2018-10-12 12:01:13.281387+00:00	2018-10-12 12:14:49.324688+00:00
truck2	ON	2018-10-12 12:14:52.908174+00:00	2018-10-12 12:14:49.324688+00:00
truck2	OFF	2018-10-12 12:14:52.908174+00:00	2018-10-12 12:14:55.208099+00:00
